^C:\USERS\BOYBE\DOCUMENTS\ING 1ERE ANNÉE\C++\TP2FORMES\DEBUG\CERCLE.OBJ|C:\USERS\BOYBE\DOCUMENTS\ING 1ERE ANNÉE\C++\TP2FORMES\DEBUG\MAIN.OBJ|C:\USERS\BOYBE\DOCUMENTS\ING 1ERE ANNÉE\C++\TP2FORMES\DEBUG\RECTANGLE.OBJ|C:\USERS\BOYBE\DOCUMENTS\ING 1ERE ANNÉE\C++\TP2FORMES\DEBUG\TRIANGLE.OBJ
/OUT:"C:\USERS\BOYBE\DOCUMENTS\ING 1ERE ANNÉE\C++\TP2FORMES\DEBUG\TP2FORMES.EXE" /INCREMENTAL /ILK:"DEBUG\TP2FORMES.ILK" /NOLOGO KERNEL32.LIB USER32.LIB GDI32.LIB WINSPOOL.LIB COMDLG32.LIB ADVAPI32.LIB SHELL32.LIB OLE32.LIB OLEAUT32.LIB UUID.LIB ODBC32.LIB ODBCCP32.LIB /MANIFEST /MANIFESTUAC:"level='asInvoker' uiAccess='false'" /manifest:embed /DEBUG /PDB:"C:\USERS\BOYBE\DOCUMENTS\ING 1ERE ANNÉE\C++\TP2FORMES\DEBUG\TP2FORMES.PDB" /SUBSYSTEM:CONSOLE /TLBID:1 /DYNAMICBASE /NXCOMPAT /IMPLIB:"C:\USERS\BOYBE\DOCUMENTS\ING 1ERE ANNÉE\C++\TP2FORMES\DEBUG\TP2FORMES.LIB" /MACHINE:X86 DEBUG\CERCLE.OBJ
DEBUG\RECTANGLE.OBJ
DEBUG\MAIN.OBJ
DEBUG\TRIANGLE.OBJ
